Function to choose optimal daily seasonal forecast model — DayWModelPicker • AutoForecaster
…
#>  3  2019    12 20       59    50  0.4      0 2019-12-20
#>  4  2019    12 21       51    43  0.88     0 2019-12-21
#>  5  2019    12 22       46    42  0.17     0 2019-12-22
#>  6  2019    12 23       48    35  0.09     0 2019-12-23
#>  7  2019    12 24       40    32 NA        0 2019-12-24
#>  8  2019    12 25       44    31  0.02     0 2019-12-25
#>  9  2019    12 26       46    27 NA        0 2019-12-26
#> 10  2019    12 27       45    37  0.01     0 2019-12-27
#> 11  2019    12 28       48    40  0        0 2019-12-28
#> 12  2019    12 29       48    40 NA        0 2019-12-29
#> 13  2019    12 30       48    40  0        0 2019-12-30
#> 14  2019    12 31       51    40  0.22     0 2019-12-31
#> 
#> $train
#> # A tsibble: 1,081 x 8 [1D]
#>       YR    MO Day      TX    TN    PR    SN date      
#>    <int> <int> <chr> <dbl> <dbl> <dbl> <dbl> <date>    
#>  1  2017     1 1        40    32  0.05  NA   2017-01-01
#>  2  2017     1 2        35    29  0      0   2017-01-02
#>  3  2017     1 3        34    27  0      0   2017-01-03
#>  4  2017     1 4        33    27  0      0   2017-01-04
#>  5  2017     1 5        35    17  0      0   2017-01-05
#>  6  2017     1 6        34    17  0      0   2017-01-06
#>  7  2017     1 7        30    24  0.02   0.4 2017-01-07
#>  8  2017     1 8        34    28  0.53   0   2017-01-08
#>  9  2017     1 9        41    30  0.28   0   2017-01-09
#> 10  2017     1 10       38    31  0.65   6.5 2017-01-10
#> # … with 1,071 more rows
#> 
#> $Model.Fits
#> # A mable: 1 x 10
#>                       `K = 1`                     `K = 2`
#>                       <model>                     <model>
#> 1 <LM w/ ARIMA(0,1,3) errors> <LM w/ ARIMA(0,1,3) errors>
#> # … with 8 more variables: K = 3 <model>, ARIMA <model>, ETS <model>,
#> #   NNET1 <model>, NNET2 <model>, NNET3 <model>, prophet <model>,
#> #   Combo1 <model>
#> 
#> $Model.Forecasts
#> # A fable: 140 x 4 [1D]
#> # Key:     .model [10]
#>    .model date              TX .mean
#>    <chr>  <date>        <dist> <dbl>
#>  1 K = 1  2019-12-18 N(43, 31)  43.5
#>  2 K = 1  2019-12-19 N(45, 50)  44.9
#>  3 K = 1  2019-12-20 N(46, 57)  45.8
#>  4 K = 1  2019-12-21 N(46, 60)  45.7
#>  5 K = 1  2019-12-22 N(46, 63)  45.9
#>  6 K = 1  2019-12-23 N(46, 66)  46.3
#>  7 K = 1  2019-12-24 N(46, 69)  46.5
#>  8 K = 1  2019-12-25 N(46, 72)  46.4
#>  9 K = 1  2019-12-26 N(46, 75)  46.1
#> 10 K = 1  2019-12-27 N(46, 78)  45.8
#> # … with 130 more rows
…
