Time-series cross-section summaries in R xtsum2 returns three datasets for cross-sectional time series tsibble. — xtsum2 • AutoForecaster
…
#> Joining, by = c("symbol", "open", "high", "low", "close", "volume", "adjusted")
#> Joining, by = "symbol"
#> $Between
#> # A tibble: 4 x 7
#>   symbol B.open B.high B.low B.close  B.volume B.adjusted
#>   <chr>   <dbl>  <dbl> <dbl>   <dbl>     <dbl>      <dbl>
#> 1 AMZN    452.   457.  447.    452.   3741086.      452. 
#> 2 FB       77.5   78.4  76.6    77.5 40007884.       77.5
#> 3 GOOG    732.   737.  726.    732.   2644115.      587. 
#> 4 NFLX    269.   273.  265.    269.  19565910.       71.7
#> 
#> $Within
#> # A tibble: 4,032 x 13
#>    symbol  open  high   low close    volume adjusted W.open W.high W.low W.close
#>    <chr>  <dbl> <dbl> <dbl> <dbl>     <dbl>    <dbl>  <dbl>  <dbl> <dbl>   <dbl>
#>  1 FB      27.4  28.2  27.4  28    69846400     28    -50.1  -50.2 -49.2   -49.5
#>  2 FB      27.9  28.5  27.6  27.8  63140600     27.8  -49.6  -49.9 -49.0   -49.7
#>  3 FB      28.0  28.9  27.8  28.8  72715400     28.8  -49.5  -49.4 -48.8   -48.8
#>  4 FB      28.7  29.8  28.6  29.4  83781800     29.4  -48.8  -48.6 -47.9   -48.1
#>  5 FB      29.5  29.6  28.9  29.1  45871300     29.1  -48.0  -48.8 -47.7   -48.5
#>  6 FB      29.7  30.6  29.5  30.6 104787700     30.6  -47.8  -47.8 -47.1   -46.9
#>  7 FB      30.6  31.5  30.3  31.3  95316400     31.3  -46.9  -46.9 -46.3   -46.2
#>  8 FB      31.3  32.0  31.1  31.7  89598000     31.7  -46.2  -46.4 -45.5   -45.8
#>  9 FB      32.1  32.2  30.6  31.0  98892800     31.0  -45.4  -46.2 -46.0   -46.6
#> 10 FB      30.6  31.7  29.9  30.1 173242600     30.1  -46.9  -46.7 -46.7   -47.4
#> # … with 4,022 more rows, and 2 more variables: W.volume <dbl>,
#> #   W.adjusted <dbl>
#> 
#> $Combined
#> # A tibble: 4,032 x 20
#>    symbol date        open  high   low close volume adjusted W.open W.high W.low
#>    <chr>  <date>     <dbl> <dbl> <dbl> <dbl>  <dbl>    <dbl>  <dbl>  <dbl> <dbl>
#>  1 FB     2013-01-02  27.4  28.2  27.4  28   6.98e7     28    -50.1  -50.2 -49.2
#>  2 FB     2013-01-03  27.9  28.5  27.6  27.8 6.31e7     27.8  -49.6  -49.9 -49.0
#>  3 FB     2013-01-04  28.0  28.9  27.8  28.8 7.27e7     28.8  -49.5  -49.4 -48.8
#>  4 FB     2013-01-07  28.7  29.8  28.6  29.4 8.38e7     29.4  -48.8  -48.6 -47.9
#>  5 FB     2013-01-08  29.5  29.6  28.9  29.1 4.59e7     29.1  -48.0  -48.8 -47.7
#>  6 FB     2013-01-09  29.7  30.6  29.5  30.6 1.05e8     30.6  -47.8  -47.8 -47.1
#>  7 FB     2013-01-10  30.6  31.5  30.3  31.3 9.53e7     31.3  -46.9  -46.9 -46.3
#>  8 FB     2013-01-11  31.3  32.0  31.1  31.7 8.96e7     31.7  -46.2  -46.4 -45.5
#>  9 FB     2013-01-14  32.1  32.2  30.6  31.0 9.89e7     31.0  -45.4  -46.2 -46.0
#> 10 FB     2013-01-15  30.6  31.7  29.9  30.1 1.73e8     30.1  -46.9  -46.7 -46.7
#> # … with 4,022 more rows, and 9 more variables: W.close <dbl>, W.volume <dbl>,
#> #   W.adjusted <dbl>, B.open <dbl>, B.high <dbl>, B.low <dbl>, B.close <dbl>,
#> #   B.volume <dbl>, B.adjusted <dbl>
…
