Function to choose optimal daily forecast model — DaysModelPicker • AutoForecaster
…
#>  5 FB     2016-12-15  120.  122.  120.  121. 20102900     121.      0.00299 
#>  6 FB     2016-12-16  121.  122.  119.  120. 25174600     120.     -0.00581 
#>  7 FB     2016-12-19  120.  120.  119.  119. 15841700     119.     -0.00526 
#>  8 FB     2016-12-20  120.  120.  119.  119. 13528100     119.     -0.00126 
#>  9 FB     2016-12-21  119.  119.  118.  119. 10735800     119.     -0.000420
#> 10 FB     2016-12-22  119.  119.  117.  117. 16222400     117.     -0.0138  
#> 11 FB     2016-12-23  117   118.  116.  117. 10877300     117.     -0.00111 
#> 12 FB     2016-12-27  117.  119.  117.  118. 12027700     118.      0.00631 
#> 13 FB     2016-12-28  118.  118.  117.  117. 11980200     117.     -0.00924 
#> 14 FB     2016-12-29  117   118.  116.  116.  9921400     116.     -0.00488 
#> 15 FB     2016-12-30  117.  117.  115.  115. 18600100     115.     -0.0112  
#> # … with 1 more variable: trading_day <int>
#> 
#> $train
#> # A tsibble: 993 x 10 [1]
#>    symbol date        open  high   low close    volume adjusted daily.returns
#>    <chr>  <date>     <dbl> <dbl> <dbl> <dbl>     <dbl>    <dbl>         <dbl>
#>  1 FB     2013-01-02  27.4  28.2  27.4  28    69846400     28         0      
#>  2 FB     2013-01-03  27.9  28.5  27.6  27.8  63140600     27.8      -0.00821
#>  3 FB     2013-01-04  28.0  28.9  27.8  28.8  72715400     28.8       0.0356 
#>  4 FB     2013-01-07  28.7  29.8  28.6  29.4  83781800     29.4       0.0229 
#>  5 FB     2013-01-08  29.5  29.6  28.9  29.1  45871300     29.1      -0.0122 
#>  6 FB     2013-01-09  29.7  30.6  29.5  30.6 104787700     30.6       0.0526 
#>  7 FB     2013-01-10  30.6  31.5  30.3  31.3  95316400     31.3       0.0232 
#>  8 FB     2013-01-11  31.3  32.0  31.1  31.7  89598000     31.7       0.0134 
#>  9 FB     2013-01-14  32.1  32.2  30.6  31.0  98892800     31.0      -0.0243 
#> 10 FB     2013-01-15  30.6  31.7  29.9  30.1 173242600     30.1      -0.0275 
#> # … with 983 more rows, and 1 more variable: trading_day <int>
#> 
#> $Model.Fits
#> # A mable: 1 x 10
#>        `K = 1`      `K = 2`      `K = 3`                  ARIMA          ETS
#>        <model>      <model>      <model>                <model>      <model>
#> 1 <NULL model> <NULL model> <NULL model> <ARIMA(0,0,0) w/ mean> <ETS(A,N,N)>
#> # … with 5 more variables: NNET1 <model>, NNET2 <model>, NNET3 <model>,
#> #   prophet <model>, Combo1 <model>
#> 
#> $Model.Forecasts
#> # A fable: 150 x 4 [1]
#> # Key:     .model [10]
#>    .model trading_day daily.returns .mean
#>    <chr>        <dbl>        <dist> <dbl>
#>  1 K = 1          994            NA    NA
#>  2 K = 1          995            NA    NA
#>  3 K = 1          996            NA    NA
#>  4 K = 1          997            NA    NA
#>  5 K = 1          998            NA    NA
#>  6 K = 1          999            NA    NA
#>  7 K = 1         1000            NA    NA
#>  8 K = 1         1001            NA    NA
#>  9 K = 1         1002            NA    NA
#> 10 K = 1         1003            NA    NA
#> # … with 140 more rows
…
