Function to choose optimal forecast model for monthly data — MonthModelPicker • AutoForecaster
…
#>  1    12  2019   48.1   38     4.39   0   2019 Dec
#>  2    11  2019   54.4   39.2   1.52   0   2019 Nov
#>  3    10  2019   60.8   42.1   1.51   0   2019 Oct
#>  4     9  2019   72.1   56.8   3.85   0   2019 Sep
#>  5     8  2019   82.6   60.9   1.23   0   2019 Aug
#>  6     7  2019   80.3   60.3   0.8    0   2019 Jul
#>  7     6  2019   76.6   54.8   0.45   0   2019 Jun
#>  8     5  2019   72.7   51.6   1.51   0   2019 May
#>  9     4  2019   62.6   46.1   2.98   0   2019 Apr
#> 10     3  2019   56.6   36.7   1.54   0   2019 Mar
#> 11     2  2019   42.9   32.2   4.1    6.5 2019 Feb
#> 12     1  2019   49.2   37.1   2.79   0   2019 Jan
#> 
#> $train
#> # A tsibble: 228 x 7 [1M]
#>       MO    YR MaxAvg MinAvg Precip  Snow    Month
#>    <int> <int>  <dbl>  <dbl>  <dbl> <dbl>    <mth>
#>  1     1  2000   45.1   34.5   5.66     1 2000 Jan
#>  2     2  2000   50.2   37.1   4.5      0 2000 Feb
#>  3     3  2000   53.9   37.3   3.21     0 2000 Mar
#>  4     4  2000   64.1   43.9   1.82     0 2000 Apr
#>  5     5  2000   66.0   49.1   2.7      0 2000 May
#>  6     6  2000   76.4   54.1   1.19     0 2000 Jun
#>  7     7  2000   78.4   57.2   0.15     0 2000 Jul
#>  8     8  2000   78.6   56.9   0.12     0 2000 Aug
#>  9     9  2000   73.9   53.9   1.67     0 2000 Sep
#> 10    10  2000   63.2   47.2   3.25     0 2000 Oct
#> # … with 218 more rows
#> 
#> $Model.Fits
#> # A mable: 1 x 10
#>                       `K = 1`                     `K = 2`
#>                       <model>                     <model>
#> 1 <LM w/ ARIMA(0,1,5) errors> <LM w/ ARIMA(0,1,1) errors>
#> # … with 8 more variables: K = 3 <model>, ARIMA <model>, ETS <model>,
#> #   NNET1 <model>, NNET2 <model>, NNET3 <model>, prophet <model>,
#> #   Combo1 <model>
#> 
#> $Model.Forecasts
#> # A fable: 120 x 4 [1M]
#> # Key:     .model [10]
#>    .model    Month    MaxAvg .mean
#>    <chr>     <mth>    <dist> <dbl>
#>  1 K = 1  2019 Jan N(48, 11)  48.1
#>  2 K = 1  2019 Feb N(51, 12)  50.6
#>  3 K = 1  2019 Mar N(57, 12)  56.9
#>  4 K = 1  2019 Apr N(65, 12)  64.8
#>  5 K = 1  2019 May N(73, 12)  73.2
#>  6 K = 1  2019 Jun N(80, 13)  79.9
#>  7 K = 1  2019 Jul N(83, 13)  82.9
#>  8 K = 1  2019 Aug N(81, 14)  81.1
#>  9 K = 1  2019 Sep N(75, 15)  75.1
#> 10 K = 1  2019 Oct N(67, 15)  66.6
#> # … with 110 more rows
…
